<svg xmlns="http://www.w3.org/2000/svg" xmlns:xlink="http://www.w3.org/1999/xlink" width="150" height="150" viewBox="0 0 150 150">
    <defs>
        <rect id="a" width="150" height="150" rx="5"/>
        <filter id="b" width="106.7%" height="106.7%" x="-3.3%" y="-2.7%" filterUnits="objectBoundingBox">
            <feOffset dy="1" in="SourceAlpha" result="shadowOffsetOuter1"/>
            <feGaussianBlur in="shadowOffsetOuter1" result="shadowBlurOuter1" stdDeviation="1.5"/>
            <feColorMatrix in="shadowBlurOuter1" values="0 0 0 0 0.932052509 0 0 0 0 0.932052509 0 0 0 0 0.932052509 0 0 0 1 0"/>
        </filter>
        <path id="c" d="M100.032 64.617c-1.498 1.498-3.317 2.247-5.457 2.247-2.14 0-3.959-.749-5.457-2.247-1.498-1.498-2.247-3.316-2.247-5.456 0-2.14.75-3.96 2.247-5.457 1.498-1.498 3.317-2.247 5.457-2.247 2.14 0 3.959.75 5.457 2.247 1.498 1.498 2.247 3.317 2.247 5.457 0 2.14-.75 3.958-2.247 5.456zm8.024-23.431c1.284 0 2.354.428 3.21 1.284.856.856 1.284 1.926 1.284 3.21v52.64c0 1.284-.428 2.354-1.284 3.21-.856.856-1.926 1.284-3.21 1.284H45.144c-1.284 0-2.354-.428-3.21-1.284-.856-.856-1.284-1.926-1.284-3.21V45.68c0-1.284.428-2.354 1.284-3.21.856-.856 1.926-1.284 3.21-1.284h62.912zm-16.53 31.777l15.888 17.012V48.247c0-1.284-.695-1.926-2.086-1.926H47.872c-1.177 0-1.872.642-2.086 1.926v41.728L66.008 65.58c.856-.856 1.765-1.284 2.728-1.284 1.177 0 2.086.375 2.728 1.124l8.667 9.469.642.642c.642.428 1.23.642 1.765.642.535 0 1.177-.268 1.926-.803l2.889-2.568c.749-.535 1.444-.802 2.086-.802.856 0 1.552.321 2.087.963z"/>
    </defs>
    <g fill="none" fill-rule="evenodd">
        <use fill="#000" filter="url(#b)" xlink:href="#a"/>
        <use fill="#F2F2F2" xlink:href="#a"/>
        <use fill="#B9B9B9" xlink:href="#c"/>
    </g>
</svg>
