<svg xmlns="http://www.w3.org/2000/svg" width="61" height="34" viewBox="0 0 61 34">
    <g fill="#F7941D" fill-rule="nonzero">
        <path d="M42.401 12.571v4.645c0 .874.349 1.687.946 2.303v1.577c0 .678.548 1.22 1.233 1.22.684 0 1.232-.542 1.232-1.22v-2.143a1.22 1.22 0 0 0-.548-1.01.861.861 0 0 1-.398-.727V12.57c0-1.626 1.345-2.956 2.988-2.956h1.008c1.644 0 2.988 1.33 2.988 2.956v4.645c0 .295-.15.566-.398.726a1.19 1.19 0 0 0-.548 1.01v4.472c0 .542.324 1.047.81 1.281.584.284 3.622 1.799 6.435 4.078.237.197.374.48.374.8v1.96h-8.64c-.685 0-1.232.541-1.232 1.219 0 .677.547 1.22 1.232 1.22h9.872c.685 0 1.233-.543 1.233-1.22v-3.178c0-1.047-.461-2.02-1.283-2.686-2.477-2.008-5.129-3.474-6.336-4.102v-3.29a3.297 3.297 0 0 0 .946-2.303V12.56c0-2.981-2.453-5.396-5.453-5.396h-1.008c-3 .013-5.453 2.427-5.453 5.408zM1.232 33.982h10.022c.685 0 1.232-.543 1.232-1.22 0-.678-.547-1.22-1.232-1.22h-8.79v-1.958c0-.308.138-.604.374-.801 2.801-2.279 5.851-3.807 6.436-4.078.498-.234.81-.739.81-1.28v-4.472a1.22 1.22 0 0 0-.548-1.01.861.861 0 0 1-.398-.727V12.57c0-1.626 1.344-2.956 2.987-2.956h1.009c1.643 0 2.987 1.33 2.987 2.956v4.645c0 .295-.149.566-.398.726a1.19 1.19 0 0 0-.548 1.01v2.243c0 .677.548 1.22 1.233 1.22.684 0 1.232-.543 1.232-1.22v-1.676a3.297 3.297 0 0 0 .946-2.303V12.57c0-2.98-2.452-5.395-5.452-5.395h-1.009c-3.012 0-5.452 2.427-5.452 5.395v4.645c0 .874.348 1.687.946 2.303v3.29c-1.22.628-3.86 2.081-6.337 4.102A3.467 3.467 0 0 0 0 29.596v3.166c0 .677.548 1.22 1.232 1.22z"/>
        <path d="M37.895 12.633v-6c0-3.658-3-6.627-6.698-6.627H29.89c-3.697 0-6.698 2.969-6.698 6.628v5.999a3.91 3.91 0 0 0 1.22 2.833v4.62c-1.456.739-5.016 2.66-8.34 5.37a4.081 4.081 0 0 0-1.52 3.191v4.115c0 .677.549 1.22 1.233 1.22H45.29c.685 0 1.233-.543 1.233-1.22v-4.115a4.081 4.081 0 0 0-1.519-3.19c-3.324-2.698-6.884-4.632-8.34-5.371v-4.62a3.855 3.855 0 0 0 1.232-2.833zm5.552 14.709c.398.32.622.8.622 1.305v2.895H17.03v-2.895c0-.505.224-.985.623-1.305 3.66-2.981 7.63-4.965 8.39-5.334.51-.247.847-.776.847-1.33v-5.79a1.22 1.22 0 0 0-.548-1.01 1.48 1.48 0 0 1-.672-1.233V6.646c0-2.316 1.904-4.188 4.232-4.188h1.308c2.34 0 4.232 1.884 4.232 4.188v6c0 .492-.249.96-.672 1.231a1.19 1.19 0 0 0-.548 1.01v5.79c0 .567.336 1.084.847 1.33.747.37 4.718 2.366 8.378 5.335z"/>
    </g>
</svg>
