<?xml version="1.0" encoding="UTF-8"?>
<svg width="17px" height="16px" viewBox="0 0 17 16" version="1.1" xmlns="http://www.w3.org/2000/svg" xmlns:xlink="http://www.w3.org/1999/xlink">
    <!-- Generator: Sketch 48.2 (47327) - http://www.bohemiancoding.com/sketch -->
    <title>back_grey</title>
    <desc>Created with Sketch.</desc>
    <defs></defs>
    <g id="5.10-Photo-Selected" stroke="none" stroke-width="1" fill="none" fill-rule="evenodd" transform="translate(-35.000000, -592.000000)" fill-opacity="0.54">
        <g id="Choose" transform="translate(24.000000, 576.000000)" fill="#000000">
            <g id="back-button" transform="translate(0.000000, 4.000000)">
                <path d="M15.5,19 L20.7464466,13.7535534 C20.9417088,13.5582912 20.9417088,13.2417088 20.7464466,13.0464466 L20.0535534,12.3535534 C19.8582912,12.1582912 19.5417088,12.1582912 19.3464466,12.3535534 L12.0535534,19.6464466 C11.8582912,19.8417088 11.8582912,20.1582912 12.0535534,20.3535534 L19.3464466,27.6464466 C19.5417088,27.8417088 19.8582912,27.8417088 20.0535534,27.6464466 L20.7464466,26.9535534 C20.9417088,26.7582912 20.9417088,26.4417088 20.7464466,26.2464466 L15.5,21 L27.2,21 C27.4761424,21 27.7,20.7761424 27.7,20.5 L27.7,19.5 C27.7,19.2238576 27.4761424,19 27.2,19 L15.5,19 Z" id="back_grey"></path>
            </g>
        </g>
    </g>
</svg>