<?xml version="1.0" encoding="UTF-8"?>
<svg width="16px" height="11px" viewBox="0 0 16 11" version="1.1" xmlns="http://www.w3.org/2000/svg" xmlns:xlink="http://www.w3.org/1999/xlink">
    <!-- Generator: Sketch 48.2 (47327) - http://www.bohemiancoding.com/sketch -->
    <title>visible_dark</title>
    <desc>Created with Sketch.</desc>
    <defs></defs>
    <g id="3.5-Login---Option2-[Filled]" stroke="none" stroke-width="1" fill="none" fill-rule="evenodd" transform="translate(-300.000000, -379.000000)">
        <g id="Password" transform="translate(40.000000, 359.000000)" fill="#A1A1A1">
            <path d="M267.99959,31 C263.661316,31 260.923124,27.095 260,25.5290714 C260.922304,23.9482143 263.661316,20 267.99959,20 C272.338684,20 275.077696,23.9285714 276,25.5 C275.076055,27.0745714 272.337043,31 267.99959,31 M267.99959,27.0714286 C267.094518,27.0714286 266.35848,26.3666429 266.35848,25.5 C266.35848,24.6333571 267.094518,23.9285714 267.99959,23.9285714 C268.904662,23.9285714 269.6407,24.6333571 269.6407,25.5 C269.6407,26.3666429 268.904662,27.0714286 267.99959,27.0714286 M267.99959,22.3571429 C266.186984,22.3571429 264.71737,23.7643571 264.71737,25.5 C264.71737,27.2356429 266.186984,28.6428571 267.99959,28.6428571 C269.812195,28.6428571 271.281809,27.2356429 271.281809,25.5 C271.281809,23.7643571 269.812195,22.3571429 267.99959,22.3571429" id="visible_dark"></path>
        </g>
    </g>
</svg>