<?xml version="1.0" encoding="UTF-8"?>
<svg width="16px" height="11px" viewBox="0 0 16 11" version="1.1" xmlns="http://www.w3.org/2000/svg" xmlns:xlink="http://www.w3.org/1999/xlink">
    <!-- Generator: Sketch 48.2 (47327) - http://www.bohemiancoding.com/sketch -->
    <title>Page 1</title>
    <desc>Created with Sketch.</desc>
    <defs></defs>
    <g id="3.4-Login---Option2-[Error]" stroke="none" stroke-width="1" fill="none" fill-rule="evenodd" transform="translate(-300.000000, -394.000000)">
        <g id="Password" transform="translate(40.000000, 392.000000)" fill="#E4E4E4">
            <path d="M267.99959,13 C263.661316,13 260.923124,9.095 260,7.52907143 C260.922304,5.94821429 263.661316,2 267.99959,2 C272.338684,2 275.077696,5.92857143 276,7.5 C275.076055,9.07457143 272.337043,13 267.99959,13 M267.99959,9.07142857 C267.094518,9.07142857 266.35848,8.36664286 266.35848,7.5 C266.35848,6.63335714 267.094518,5.92857143 267.99959,5.92857143 C268.904662,5.92857143 269.6407,6.63335714 269.6407,7.5 C269.6407,8.36664286 268.904662,9.07142857 267.99959,9.07142857 M267.99959,4.35714286 C266.186984,4.35714286 264.71737,5.76435714 264.71737,7.5 C264.71737,9.23564286 266.186984,10.6428571 267.99959,10.6428571 C269.812195,10.6428571 271.281809,9.23564286 271.281809,7.5 C271.281809,5.76435714 269.812195,4.35714286 267.99959,4.35714286" id="Page-1"></path>
        </g>
    </g>
</svg>