<?xml version="1.0" encoding="UTF-8"?>
<svg width="17px" height="19px" viewBox="0 0 17 19" version="1.1" xmlns="http://www.w3.org/2000/svg" xmlns:xlink="http://www.w3.org/1999/xlink">
    <!-- Generator: Sketch 48.2 (47327) - http://www.bohemiancoding.com/sketch -->
    <title>back</title>
    <desc>Created with Sketch.</desc>
    <defs></defs>
    <g id="10.1-Menu" stroke="none" stroke-width="1" fill="none" fill-rule="evenodd" transform="translate(-28.000000, -253.000000)">
        <g id="Side-Menu" transform="translate(0.000000, 24.000000)" fill="#232323" fill-rule="nonzero">
            <g id="Help" transform="translate(24.000000, 227.000000)">
                <g id="Material/Icons-white/Contests">
                    <path d="M19.9169151,3.50170312 C19.749139,3.27997266 19.4893891,3.15 19.2139524,3.15 L17.028154,3.15 L17.028154,2.85001172 C17.0278424,2.51876953 16.7634176,2.25031641 16.4371806,2.25 L8.16320595,2.25 C7.83693431,2.25031641 7.57254416,2.51876953 7.57219787,2.85001172 L7.57219787,3.15 L5.38643412,3.15 C5.11103204,3.15 4.85124751,3.27997266 4.68347144,3.50170312 C4.51569537,3.72343359 4.45897356,4.01175 4.5299624,4.28189062 L5.42812708,7.70185547 C5.52584928,8.08853906 5.70204012,8.45026172 5.94541065,8.76385547 C6.36279041,9.31974609 6.99057417,9.67253906 7.67618787,9.73652344 C8.0589043,11.3897109 9.45059726,12.6019688 11.1182117,12.7347891 L11.1182117,14.85 L10.5272036,14.85 C10.3639986,14.85 10.2317169,14.9842969 10.2317169,15.1499883 L10.2317169,16.0499883 L9.9362302,16.0499883 C9.23447952,16.0509727 8.62989699,16.5521602 8.48861188,17.2499766 L7.57226713,17.2499766 C7.24599549,17.250293 6.98160534,17.5187461 6.98125905,17.8499883 L6.98125905,19.6499883 C6.98157071,19.9812305 7.24599549,20.2496484 7.57226713,20.25 L17.0282233,20.25 C17.3544949,20.2496836 17.6188851,19.9812305 17.6192313,19.6499883 L17.6192313,17.8499883 C17.6189197,17.5187461 17.3544949,17.2503281 17.0282233,17.2499766 L16.1118785,17.2499766 C15.9705934,16.552125 15.3660109,16.0509375 14.6642602,16.0499883 L14.3687735,16.0499883 L14.3687735,15.1499883 C14.3687735,14.9842969 14.2364918,14.85 14.0732868,14.85 L13.4822787,14.85 L13.4822787,12.7347891 C15.1499278,12.6019687 16.5415861,11.3897109 16.9243025,9.73652344 C17.6098816,9.67253906 18.2376654,9.31974609 18.6550798,8.76385547 C18.8984503,8.45026172 19.0746065,8.08853906 19.1723633,7.70185547 L20.0705626,4.28189062 C20.141413,4.01175 20.0846911,3.72343359 19.9169151,3.50170312 Z M6.40683812,8.38887891 C6.2147527,8.14018359 6.07592623,7.85348437 5.99922365,7.54716797 L5.10102435,4.12720312 C5.07730368,4.03716797 5.09621096,3.94108594 5.15213631,3.8671875 C5.20806167,3.79328906 5.29463343,3.74997656 5.38643412,3.75001172 L7.5722325,3.75001172 L7.5722325,8.85002344 C7.5722325,8.94297656 7.57964305,9.03403125 7.5859801,9.12540234 C7.1142679,9.04289062 6.69200549,8.77911328 6.40683812,8.38887891 Z M17.028154,17.8499883 L17.0286042,19.6499883 L7.5722325,19.6499883 L7.5722325,17.8499883 L17.028154,17.8499883 Z M14.6641909,16.65 C15.0397392,16.6504219 15.3744257,16.8906797 15.500024,17.2500117 L9.10036255,17.2500117 C9.22596086,16.8906797 9.56064728,16.650457 9.93619557,16.65 L14.6641909,16.65 Z M13.7776961,15.4500117 L13.7776961,16.0500234 L10.822725,16.0500234 L10.822725,15.4500117 L13.7776961,15.4500117 Z M11.7091852,14.85 L11.7091852,12.7500117 L12.8911667,12.7500117 L12.8911667,14.85 L11.7091852,14.85 Z M16.4371806,8.84998828 C16.4351375,10.6716797 14.9810436,12.1479258 13.1866881,12.15 L11.4136985,12.15 C9.61934293,12.1479258 8.16524905,10.6716797 8.16320595,8.84998828 L8.16320595,2.85001172 L16.4371806,2.85001172 L16.4371459,8.84998828 L16.4371806,8.84998828 Z M19.4993622,4.12720312 L18.6011629,7.54716797 C18.5244949,7.85348437 18.3856338,8.14014844 18.1935484,8.38887891 C17.908381,8.77914844 17.486084,9.04289063 17.0144064,9.12536719 C17.0207435,9.03403125 17.028154,8.94294141 17.028154,8.84998828 L17.028154,3.75001172 L19.2139524,3.75001172 C19.3057531,3.74997656 19.3923248,3.79325391 19.4482502,3.8671875 C19.5041756,3.94105078 19.5230828,4.03716797 19.4993622,4.12720312 Z" id="Shape"></path>
                </g>
            </g>
        </g>
    </g>
</svg>