<?xml version="1.0" encoding="UTF-8"?>
<svg width="20px" height="20px" viewBox="0 0 20 20" version="1.1" xmlns="http://www.w3.org/2000/svg" xmlns:xlink="http://www.w3.org/1999/xlink">
    <!-- Generator: Sketch 48.2 (47327) - http://www.bohemiancoding.com/sketch -->
    <title>review</title>
    <desc>Created with Sketch.</desc>
    <defs></defs>
    <g id="8.3-Profile-Personal-Given-Rate" stroke="none" stroke-width="1" fill="none" fill-rule="evenodd" transform="translate(-215.000000, -449.000000)">
        <g id="Page-Menu" transform="translate(0.000000, 440.000000)" fill="#EF3B39" fill-rule="nonzero">
            <g id="review" transform="translate(215.000000, 9.000000)">
                <path d="M4.78714844,10.8785098 C4.29628906,10.8785098 3.89695313,11.2793725 3.89695313,11.7721176 C3.89695313,12.2648627 4.29628906,12.6657255 4.78714844,12.6657255 C5.27796875,12.6657255 5.67726563,12.2648627 5.67726563,11.7721176 C5.67726563,11.2793725 5.27792969,10.8785098 4.78714844,10.8785098 Z M4.78714844,12.0764314 C4.62003906,12.0764314 4.4840625,11.9399216 4.4840625,11.7721961 C4.4840625,11.6044706 4.62003906,11.4679608 4.78714844,11.4679608 C4.95425781,11.4679608 5.09019531,11.6044706 5.09019531,11.7721961 C5.09019531,11.9399216 4.95421875,12.0764314 4.78714844,12.0764314 Z" id="Shape"></path>
                <path d="M12.8407813,16.5613333 C12.8015234,16.4398039 12.6887891,16.3576471 12.5616406,16.3576471 L10.8179688,16.3576471 L10.2791406,14.6928235 C10.2403125,14.5727843 10.1256641,14.4891765 9.99996094,14.4891765 C9.87425781,14.4891765 9.75964844,14.5727451 9.72078125,14.6928235 L9.18195313,16.3576471 L7.43832031,16.3576471 C7.31117188,16.3576471 7.1984375,16.4398431 7.15914063,16.5612941 C7.11984375,16.6827059 7.16289063,16.8157647 7.26578125,16.8907451 L8.67640625,17.9196863 L8.13757813,19.5845098 C8.09996094,19.7006275 8.13949219,19.8314118 8.23503906,19.9069804 C8.33710938,19.9877255 8.48414063,19.9906667 8.58929688,19.9139608 L9.99992188,18.8850196 L11.4105469,19.9139608 C11.5208594,19.9944314 11.6759375,19.9867059 11.7778906,19.8959216 C11.8643359,19.8189412 11.8979688,19.6948627 11.8622266,19.584549 L11.3233984,17.9197255 L12.7340234,16.8907843 C12.8370313,16.8158039 12.8800781,16.6827451 12.8407813,16.5613333 Z M10.8058984,17.5686667 C10.7030078,17.6436863 10.6599609,17.7767059 10.6992578,17.8981176 L11.0248047,18.904 L10.1724609,18.2823529 C10.0707422,18.2081176 9.92910156,18.2081176 9.82742188,18.2823529 L8.97507813,18.904 L9.300625,17.8981176 C9.33992188,17.7767059 9.296875,17.6436471 9.19398438,17.5686667 L8.34167969,16.9470196 L9.39519531,16.9470196 C9.52234375,16.9470196 9.63507813,16.8648235 9.674375,16.7433725 L9.99992188,15.7374902 L10.3254688,16.7433725 C10.3647656,16.8648235 10.4775,16.9470196 10.6046484,16.9470196 L11.6581641,16.9470196 L10.8058984,17.5686667 Z" id="Shape"></path>
                <path d="M19.9855859,16.5612549 C19.9462891,16.4398039 19.8335547,16.3576078 19.7064063,16.3576078 L17.9627734,16.3576078 L17.4239453,14.6927843 C17.3851172,14.5727451 17.2704688,14.4891373 17.1447656,14.4891373 C17.0190625,14.4891373 16.9044531,14.5727059 16.8655859,14.6927843 L16.3267578,16.3576078 L14.583125,16.3576078 C14.4559766,16.3576078 14.3432422,16.4398039 14.3039453,16.5612549 C14.2646484,16.6826667 14.3076953,16.8157255 14.4105859,16.8907059 L15.8212109,17.9196471 L15.2823828,19.5844706 C15.2447656,19.7005882 15.2842969,19.8313725 15.3798438,19.9069412 C15.4819141,19.9876863 15.6289453,19.9906275 15.7341016,19.9139216 L17.1447266,18.8849804 L18.5553516,19.9139216 C18.6657031,19.9943922 18.8207422,19.9866667 18.9227344,19.8958824 C19.0091797,19.818902 19.0428125,19.6948235 19.0070703,19.5845098 L18.4682422,17.9196863 L19.8788672,16.8907451 C19.981875,16.8157255 20.0249219,16.6826667 19.9855859,16.5612549 Z M17.9507031,17.5686667 C17.8478125,17.6436863 17.8047656,17.7767059 17.8440625,17.8981176 L18.1695703,18.904 L17.3173047,18.2823529 C17.214375,18.2072941 17.0750781,18.2072549 16.9722266,18.2823529 L16.1198828,18.904 L16.4454297,17.8981176 C16.4847266,17.7767059 16.4416797,17.6436471 16.3387891,17.5686667 L15.4864844,16.9470196 L16.5400391,16.9470196 C16.6671875,16.9470196 16.7799219,16.8648235 16.8192188,16.7433725 L17.1447656,15.7374902 L17.4703125,16.7433725 C17.5096094,16.8648235 17.6223437,16.9470196 17.7494922,16.9470196 L18.8030078,16.9470196 L17.9507031,17.5686667 Z" id="Shape"></path>
                <path d="M5.69605469,16.5613333 C5.65671875,16.4398039 5.54398437,16.3576471 5.41683594,16.3576471 L3.67320313,16.3576471 L3.134375,14.6928235 C3.09507812,14.5713725 2.98234375,14.4891765 2.85519531,14.4891765 C2.72804687,14.4891765 2.6153125,14.5713725 2.57601562,14.6928235 L2.0371875,16.3576471 L0.293554688,16.3576471 C0.16640625,16.3576471 0.053671875,16.4398431 0.014375,16.5612941 C-0.024921875,16.6827059 0.018125,16.8157647 0.121015625,16.8907451 L1.53164062,17.9196863 L0.9928125,19.5845098 C0.953515625,19.7059216 0.9965625,19.8389804 1.09945312,19.9139608 C1.20230469,19.9890196 1.34164062,19.9890196 1.44453125,19.9139608 L2.85515625,18.8850196 L4.26578125,19.9139608 C4.37613281,19.9944314 4.53117188,19.9867059 4.633125,19.8959216 C4.71957031,19.8189412 4.75320312,19.6948627 4.71746094,19.584549 L4.17863281,17.9197255 L5.58925781,16.8907843 C5.69230469,16.8158039 5.73535156,16.6827451 5.69605469,16.5613333 Z M3.66113281,17.5686667 C3.55824219,17.6436863 3.51519531,17.7767059 3.55449219,17.8981176 L3.88003906,18.904 L3.02769531,18.2823529 C2.92597656,18.2081176 2.78433594,18.2081176 2.68261719,18.2823529 L1.83035156,18.9039608 L2.15585937,17.8980784 C2.19515625,17.7766667 2.15210937,17.6436078 2.04921875,17.5686275 L1.19691406,16.9469804 L2.25042969,16.9469804 C2.37757812,16.9469804 2.4903125,16.8647843 2.52960938,16.7433333 L2.85515625,15.737451 L3.18070313,16.7433333 C3.22,16.8647843 3.33273438,16.9469804 3.45988281,16.9469804 L4.51339844,16.9469804 L3.66113281,17.5686667 Z" id="Shape"></path>
                <path d="M17.6237109,7.37639216 C17.9269141,7.13145098 18.12125,6.75588235 18.12125,6.33568627 C18.12125,5.59933333 17.5245312,5.00027451 16.7910938,5.00027451 L12.069375,5.00027451 C12.2161328,4.67901961 12.3855469,4.18964706 12.4823828,3.50937255 C12.7073047,1.92862745 12.3674219,1.08956863 12.0426953,0.664039216 C11.7678516,0.303882353 11.3985937,0.0860784314 10.9749219,0.0342352941 C10.6174219,-0.00984313725 10.2909766,0.275215686 10.2814453,0.635764706 C10.2264844,1.20258824 10.0254297,2.75760784 9.73746094,3.33588235 C8.99765625,4.82129412 7.23382813,5.70690196 6.6890625,5.95192157 C6.4984375,5.78745098 6.25085938,5.68772549 5.98039063,5.68772549 L3.59390625,5.68772549 C2.9934375,5.68772549 2.50492187,6.17811765 2.50492187,6.78098039 L2.50492187,12.7704314 C2.50492187,13.3732941 2.9934375,13.8636863 3.59390625,13.8636863 L5.9803125,13.8636863 C6.30160156,13.8636863 6.59078125,13.7231765 6.79023437,13.5002745 C7.10003906,13.6966275 7.60003906,13.9153725 8.29054687,13.9153725 L15.9617578,13.9153725 C16.6952344,13.9153725 17.2919141,13.3163137 17.2919141,12.58 C17.2919141,12.2424706 17.1665234,11.9337647 16.9600391,11.6983922 C17.4017578,11.4809412 17.7065234,11.0247451 17.7065234,10.4985098 C17.7065234,10.1609804 17.5811328,9.85231373 17.3746484,9.61690196 C17.8163672,9.3994902 18.1211328,8.94329412 18.1211328,8.41705882 C18.12125,7.99690196 17.926875,7.62133333 17.6237109,7.37639216 Z M5.9803125,13.2742745 L3.59390625,13.2742745 C3.31714844,13.2742745 3.09199219,13.0482353 3.09199219,12.7703922 L3.09199219,6.78094118 C3.09199219,6.50309804 3.31714844,6.27705882 3.59390625,6.27705882 L5.9803125,6.27705882 C6.12046875,6.27705882 6.24722656,6.33517647 6.33835937,6.4285098 L6.33835937,13.0002745 C6.33835937,13.0355294 6.34472656,13.0701176 6.35675781,13.1025882 C6.2646875,13.2075686 6.13027344,13.2742745 5.9803125,13.2742745 Z M15.5577734,7.67105882 L16.7912109,7.67105882 C17.2009766,7.67105882 17.5342969,8.00576471 17.5342969,8.41705882 C17.5342969,8.82835294 17.2009375,9.16305882 16.7912109,9.16305882 L15.5577734,9.16305882 C15.3956641,9.16305882 15.2642187,9.29498039 15.2642187,9.45776471 C15.2642187,9.62054902 15.3956641,9.75247059 15.5577734,9.75247059 L16.3765234,9.75247059 C16.7862891,9.75247059 17.1196094,10.0871765 17.1196094,10.4984706 C17.1196094,10.9097647 16.78625,11.2444706 16.3765234,11.2444706 L15.3327344,11.2444706 C15.170625,11.2444706 15.0391797,11.3763922 15.0391797,11.5391765 C15.0391797,11.7019608 15.170625,11.8338824 15.3327344,11.8338824 L15.9618359,11.8338824 C16.3715625,11.8338824 16.7049219,12.1685882 16.7049219,12.5799216 C16.7049219,12.9912549 16.3715625,13.3259216 15.9618359,13.3259216 L8.290625,13.3259216 C7.68476563,13.3259216 7.27402344,13.1221569 7.05101563,12.9691765 C7.06289063,12.9046275 7.06941406,12.8382353 7.06941406,12.7703137 L7.06941406,6.78094118 C7.06941406,6.66572549 7.05144531,6.55470588 7.01839844,6.45039216 C7.70621094,6.1334902 9.46710937,5.1965098 10.2625391,3.59945098 C10.6603906,2.80066667 10.85875,0.76654902 10.8669922,0.680352941 C10.8678516,0.671019608 10.8683203,0.661568627 10.8683203,0.652196078 C10.8683203,0.642156863 10.8721484,0.633607843 10.8796875,0.626941176 C10.8902344,0.617647059 10.9003906,0.618823529 10.9037891,0.619254902 C11.0875391,0.641764706 11.3534375,0.73 11.5766797,1.02247059 C11.8329687,1.35831373 12.0973047,2.04792157 11.9012109,3.42603922 C11.735,4.59415686 11.3408984,5.10517647 11.3384375,5.10835294 C11.1845703,5.29713725 11.323125,5.58968627 11.5655859,5.58968627 L16.7911719,5.58968627 C17.2009375,5.58968627 17.5342578,5.92439216 17.5342578,6.33572549 C17.5342578,6.74709804 17.2008984,7.08172549 16.7911719,7.08172549 L15.5577344,7.08172549 C15.395625,7.08172549 15.2641797,7.21364706 15.2641797,7.37643137 C15.2641797,7.53921569 15.395625,7.67105882 15.5577734,7.67105882 Z" id="Shape"></path>
            </g>
        </g>
    </g>
</svg>