<?xml version="1.0" encoding="UTF-8"?>
<svg width="14px" height="11px" viewBox="0 0 14 11" version="1.1" xmlns="http://www.w3.org/2000/svg" xmlns:xlink="http://www.w3.org/1999/xlink">
    <!-- Generator: Sketch 48.2 (47327) - http://www.bohemiancoding.com/sketch -->
    <title>Page 1</title>
    <desc>Created with Sketch.</desc>
    <defs></defs>
    <g id="12.1-News-Home" stroke="none" stroke-width="1" fill="none" fill-rule="evenodd" transform="translate(-179.000000, -214.000000)">
        <g id="News-1" transform="translate(0.000000, 130.000000)" fill="#888888">
            <g id="Views-Comments" transform="translate(129.000000, 82.000000)">
                <path d="M56.72,10.96 C53.75928,10.96 51.89056,8.1768 51.26056,7.06072 C51.89,5.934 53.75928,3.12 56.72,3.12 C59.68128,3.12 61.55056,5.92 62.18,7.04 C61.54944,8.16224 59.68016,10.96 56.72,10.96 M56.72,2 C52.24,2 50,7.06352 50,7.06352 C50,7.06352 52.24,12.08 56.72,12.08 C61.2,12.08 63.44,7.04 63.44,7.04 C63.44,7.04 61.2,2 56.72,2 M56.72,8.16 C56.10232,8.16 55.6,7.65768 55.6,7.04 C55.6,6.42232 56.10232,5.92 56.72,5.92 C57.33768,5.92 57.84,6.42232 57.84,7.04 C57.84,7.65768 57.33768,8.16 56.72,8.16 M56.72,4.8 C55.48296,4.8 54.48,5.80296 54.48,7.04 C54.48,8.27704 55.48296,9.28 56.72,9.28 C57.95704,9.28 58.96,8.27704 58.96,7.04 C58.96,5.80296 57.95704,4.8 56.72,4.8" id="Page-1"></path>
            </g>
        </g>
    </g>
</svg>